…
```r
# Load example character vector from clnr
data(candyhierarchy_localities)
# See how many unique values 
unique(candyhierarchy_localities) %>% length()
# [1] 460
# See most common values
sort(table(candyhierarchy_localities), decreasing = TRUE) %>% head(5)
# candyhierarchy_localities
# California         CA   Illinois      Texas    Ontario 
#        153         89         68         63         59 
candyhierarchy_localities_cleaned <- clean(candyhierarchy_localities, ask_user = F)
# Main modifications are as following:
# # A tibble: 133 x 3
#    s          fingerprint final_value_to_keep
#    <chr>      <chr>       <chr>              
#  1 ca         ca          CA                 
#  2 california california  California         
#  3 ontario    ontario     Ontario            
#  4 Ca         ca          CA                 
#  5 ma         ma          MA                 
#  6 Ny         ny          NY                 
#  7 Wa         wa          WA                 
#  8 ny         ny          NY                 
#  9 wa         wa          WA                 
# 10 oregon     oregon      Oregon             
# # … with 123 more rows
…
